{
  "project_info": {
    "project_number": "466666292881",
    "firebase_url": "https://sikumis-db0e0.firebaseio.com",
    "project_id": "sikumis-db0e0",
    "storage_bucket": "sikumis-db0e0.appspot.com"
  },
  "client": [
    {
      "client_info": {
        "mobilesdk_app_id": "1:466666292881:android:34fdaa3981763764742130",
        "android_client_info": {
          "package_name": "com.sikumis"
        }
      },
      "oauth_client": [
        {
          "client_id": "466666292881-sb7i75sse3tgssjc7p9bm47i57vek28t.apps.googleusercontent.com",
          "client_type": 3
        }
      ],
      "api_key": [
        {
          "current_key": "AIzaSyBsrc52L8KY2unzgYTAKJr6FnJVBoqGufc"
        }
      ],
      "services": {
        "appinvite_service": {
          "other_platform_oauth_client": [
            {
              "client_id": "466666292881-sb7i75sse3tgssjc7p9bm47i57vek28t.apps.googleusercontent.com",
              "client_type": 3
            }
          ]
        }
      }
    }
  ],
  "configuration_version": "1"
}